<?xml version="1.0" encoding="utf-8"?>
<!-- Generator: Adobe Illustrator 23.0.0, SVG Export Plug-In . SVG Version: 6.00 Build 0)  -->
<svg version="1.1" id="Слой_1" xmlns="http://www.w3.org/2000/svg" xmlns:xlink="http://www.w3.org/1999/xlink" x="0px" y="0px"
	 viewBox="0 0 408.85 411.48" style="enable-background:new 0 0 408.85 411.48;" xml:space="preserve">
<style type="text/css">
	.st0{fill:#FFFFFF;}
	.st1{fill:#333333;}
</style>
<ellipse transform="matrix(1 -6.393794e-03 6.393794e-03 1 -1.3407 1.3237)" class="st0" cx="206.35" cy="210.36" rx="196.5" ry="196.5"/>
<path class="st1" d="M98.65,45.74c0.92-0.23,1.83-0.46,2.75-0.69c5.87-1.26,11.39-3.32,16.3-7.05c-0.56,0.69-1.12,1.37-2.03,2.48
	c4.29-1.04,8.01-2.03,11.77-2.81c1.74-0.36,3.13-1.09,4.47-2.24c2.76-2.36,5.62-4.61,8.52-6.79c0.86-0.65,1.99-0.93,3-1.37
	c-0.9,0.82-1.79,1.66-2.72,2.46c-2.29,1.97-4.61,3.91-6.91,5.86c5.56-0.25,10.78-1.01,15.97-1.95c0.88-0.16,1.69-1.01,2.39-1.69
	c2.28-2.21,4.49-4.49,6.74-6.73c0.76-0.75,1.57-1.44,2.36-2.16c-5.77,0.72-11.62,0.31-16.58,3.63c-0.17-1.43-1.09-1.05-1.95-0.8
	c0.51-0.4,0.98-1.09,1.53-1.16c3.64-0.46,6.85-2.35,10.73-2.41c4.77-0.08,9.73-0.81,13.93-3.68c0.07-0.05,0.3,0.13,0.45,0.2
	c-0.34,0.49-0.67,0.95-1.18,1.68c3.48-0.3,6.54-0.82,9.58-0.77c4.29,0.08,6.78-2.79,10.14-5.19c-11.23,0.02-43.34,7.05-49.13,11.4
	c0.74,0,1.3,0,1.86,0c-0.49,0.24-0.96,0.53-1.48,0.7c-4.9,1.57-10.03,2.63-14.65,4.8c-7.69,3.6-15.06,7.9-22.54,11.94
	c-0.44,0.24-0.71,0.77-1.06,1.17c-0.74,0.42-1.48,0.85-2.22,1.27c-0.81,0.47-1.61,0.93-2.42,1.4c0.15,0.2,0.31,0.4,0.46,0.61
	C97.39,47.13,98.02,46.43,98.65,45.74z"/>
<path class="st1" d="M363.93,326.78c0.66-0.93,1.33-1.86,1.99-2.79c2.62-3.75,5.33-7.43,7.83-11.26c0.97-1.49,1.71-3.24,2.12-4.98
	c0.52-2.22,0.85-4.57-0.31-6.85c-0.37,0.25-0.61,0.33-0.73,0.5c-5.42,7.56-10.84,15.13-16.24,22.71c-0.32,0.45-0.8,0.99-0.76,1.46
	c0.18,2.19,0.51,4.37,0.78,6.55c-0.54,1.02-1.09,2.05-1.63,3.07c2.85-2.47,5.45-5.03,6.97-8.42
	C363.95,326.75,363.93,326.78,363.93,326.78z"/>
<path class="st1" d="M253.41,20.97c1.36,0.48,2.72,0.95,4.07,1.45c1.05,0.39,2.06,0.97,3.14,1.18c3.74,0.74,7.55,1.16,11.25,2.07
	c2.7,0.66,5.27,1.88,7.88,2.9c0.2,0.08,0.23,0.61,0.34,0.93c-0.31,0.04-0.62,0.07-0.92,0.11c-5.31-2.47-10.95-3.57-17.07-4.5
	c3.22,3.08,6.21,5.58,8.73,8.48c1.92,2.2,4.03,3.38,6.87,3.84c4.19,0.68,8.32,1.7,12.48,2.57c-0.74-1.35-1.7-2.28-2.68-3.19
	c-1.74-1.6-3.5-3.18-5.26-4.77c0.99,0.5,2.09,0.85,2.95,1.52c2.5,1.96,4.88,4.07,7.36,6.06c0.96,0.76,1.98,1.61,3.11,1.95
	c4.32,1.28,8.71,2.36,13.06,3.56c0.62,0.17,1.17,0.65,1.73,1.01c2.08,1.35,7.86,3.74,9.57,3.95c-6.45-5.56-18.79-12.96-26.72-16.06
	c-3.37-1.32-6.74-2.65-10.09-4.03c-0.59-0.24-1.06-0.78-1.58-1.18c-0.19-0.24-0.32-0.6-0.56-0.7c-9.44-4.07-19.3-6.89-29.23-9.45
	c-0.39-0.1-0.92,0.34-1.39,0.52c-0.28-0.17-0.55-0.4-0.86-0.51c-5.07-1.87-10.35-2.7-15.7-3.16c-0.24-0.02-0.54,0.6-0.81,0.92
	c-3.67-1.92-10.21-2.77-13.67-1.78c0.89,1.44,1.78,2.87,2.7,4.34c4.95,0.37,9.89,0.74,14.83,1.11c0.1-0.2,0.2-0.41,0.3-0.61
	c-1.4-1.04-2.8-2.08-4.2-3.12c2.24-0.24,3.78,1.17,5.42,2.32c0.83,0.58,1.56,1.57,2.45,1.73c4.45,0.79,8.94,1.37,13.42,2.02
	c0.07-0.19,0.14-0.39,0.21-0.58C254.17,21.56,253.79,21.27,253.41,20.97z"/>
<path class="st1" d="M195.16,386.27c1.51,2.02,3.38,1.75,5.52,0.95c-0.85-5.24-1.68-10.35-2.58-15.83c-3.1,0.14-6,0.27-9.26,0.42
	c0.54,1.35,0.91,2.4,1.36,3.42c1.67,3.72,3.37,7.43,5.06,11.13c-0.75-0.95-1.65-1.82-2.22-2.87c-2.06-3.77-4.02-7.6-6.14-11.65
	c-2.7,0.28-5.42,0.56-8.76,0.91c3.11,4.05,5.79,7.53,8.47,11.01c-1.55-1.44-3.17-2.81-4.62-4.35c-1.46-1.55-2.7-3.31-4.15-4.89
	c-0.56-0.61-1.42-1.38-2.11-1.34c-2.25,0.14-4.49,0.61-7.07,1.01c1.57,1.77,2.74,3.09,3.91,4.41l-0.14,0.14
	c-1.35-0.99-2.66-2.03-4.05-2.96c-0.71-0.47-1.61-1.12-2.34-1.02c-1.9,0.27-3.75,0.9-6.23,1.55c7.35,5.33,14.45,9.5,21.88,13.13
	c1.46,0.71,7-0.45,8.47-1.6c0.07-0.05,0.04-0.22,0.06-0.33c1.19,0.2,2.38,0.47,3.57,0.59C195.15,388.23,195.08,387.17,195.16,386.27
	z"/>
<path class="st1" d="M330.39,58.36c-1.09-0.8-2.22-1.55-3.27-2.4c-3.38-2.73-7.38-4.2-11.42-5.67c0.43,0.81,1,1.43,1.56,2.07
	c3.9,4.41,7.88,8.75,11.66,13.26c1.28,1.53,2.61,2.72,4.49,3.42c2.01,0.75,3.93,1.73,5.89,2.62c1.2,0.54,2.38,1.11,3.94,1.84
	c-0.09-0.94-0.12-1.35-0.16-1.75c2.51,3.59,6.28,5.57,9.88,7.8c-0.09-0.5-0.29-0.9-0.58-1.18c-6.26-6.1-12.5-12.21-18.82-18.23
	C332.71,59.31,331.45,58.93,330.39,58.36z"/>
<path class="st1" d="M104.09,371.69c2.29-0.78,0.87-2.94,1.72-4.07c-8.55-6.24-16.92-12.34-25.36-18.5c-1.23,2.6-1.6,5,0.79,7.11
	c-0.36,0.27-1.08,0.7-1.04,0.8c0.59,1.33,1.05,2.83,1.99,3.88c2.04,2.26,4.12,4.6,6.58,6.34c6.28,4.43,12.78,8.57,19.21,12.79
	c0.8,0.53,1.73,0.86,2.6,1.28c-2.42-2.5-4.31-5.17-5.35-8.42C105.08,372.42,104.48,372.09,104.09,371.69z"/>
<path class="st1" d="M352.86,338.48c2.12-2.65,2.82-5.5,1.41-8.74c-7.4,7.15-14.7,14.2-22.1,21.34c0.08,1.14,0.24,2.48,0.24,3.83
	c0,1.24,0.78,1.13,1.58,1.12c-2.09,1.47-3.23,3.54-4.25,6.59c8.24-6.42,15.32-12.96,21.67-20.28c0.74-0.85,1.28-1.88,1.82-2.87
	C353.34,339.26,353,338.81,352.86,338.48z"/>
<path class="st1" d="M91.86,51.63c-1.11,0.44-2.33,0.7-3.32,1.33c-7.42,4.76-13.84,10.72-19.96,17.02
	c-1.15,1.18-2.21,2.45-3.31,3.67c2.46-0.9,4.55-2.21,6.75-3.31c1.97-0.99,3.54-2.34,5.02-3.98c3.05-3.37,6.25-6.62,9.49-9.82
	c0.94-0.92,2.21-1.51,3.33-2.25c-3.93,4.03-7.86,8.06-11.79,12.08c0.14,0.19,0.29,0.38,0.43,0.56c0.83-0.27,1.66-0.51,2.48-0.81
	c3.09-1.12,6.15-2.34,9.28-3.37c1.7-0.56,2.89-1.54,4.06-2.88c3.8-4.36,7.76-8.59,11.67-12.87c0.59-0.64,1.19-1.27,1.79-1.91
	c-1.05-0.13-1.88,0.14-2.71,0.4C100.4,46.97,96.03,49.08,91.86,51.63z"/>
<path class="st1" d="M46.32,98.65c-0.29,0.95-0.58,1.89-0.95,3.12c3.42-1.95,6.52-3.81,9.71-5.5c1.47-0.78,2.42-1.86,3.3-3.25
	c3.79-6.04,7.71-12,11.58-17.99c0.37-0.57,0.69-1.17,1.04-1.76c-4.45,1.96-8.68,3.88-11.81,7.49c-2.06,2.37-4.18,4.69-6.27,7.03
	c-0.79,0.72-1.68,1.34-2.35,2.16c-4.19,5.15-7.74,10.73-10.86,16.63c1.43-1.11,2.64-2.39,3.71-3.78
	C44.45,101.47,45.36,100.04,46.32,98.65z"/>
<path class="st1" d="M55.08,331.74c-0.13,0.44-0.52,1.03-0.36,1.3c1.36,2.32,2.49,4.9,4.32,6.81c5.3,5.55,10.88,10.83,16.37,16.2
	c0.48,0.47,1.15,0.76,1.73,1.13c0.18-0.18,0.36-0.35,0.55-0.53c-1.23-2.08-2.47-4.15-3.7-6.23c0.53-0.18,1.43-0.24,1.53-0.55
	c0.47-1.49,0.72-3.04,0.91-3.9c-3.81-4.04-7.34-7.72-10.79-11.45c-3.45-3.72-6.83-7.51-10.4-11.44
	C53.68,326.09,53.12,328.88,55.08,331.74z"/>
<path class="st1" d="M12.91,173.75c0.49,1.38,0.97,2.76,1.45,4.11c1.89-2,3.62-3.97,5.5-5.78c1.04-1,1.58-2.04,1.77-3.5
	c1.14-8.8,2.77-17.51,5.18-26.06c0.1-0.35-0.02-0.76-0.06-1.59c-3.4,3.06-6.21,5.93-7.53,9.99c-2.31,7.09-3.62,14.4-5.09,21.45
	c-0.13-0.03-0.63-0.2-0.66-0.14C13.23,172.71,13.08,173.24,12.91,173.75c-0.07,1.43-0.13,2.84-0.2,4.26
	c0.22-0.01,0.45-0.02,0.67-0.02C13.23,176.57,13.07,175.16,12.91,173.75z"/>
<path class="st1" d="M305.16,369.01c-1.07,0.93-2.14,1.85-3.2,2.77c0.16,1.28,0.32,2.49,0.5,3.89c0.87-0.39,1.61-0.63,2.26-1.03
	c7.13-4.41,14.28-8.79,21.34-13.32c2.85-1.83,3.05-3.22,1.59-7c-1.58,1.16-3.08,2.35-4.66,3.41c-1.38,0.92-2.86,1.68-4.29,2.51
	c1.43-1.24,2.84-2.49,4.29-3.7c1.54-1.28,3.12-2.52,4.87-3.93c-1.43-1.99-2.65-3.68-3.78-5.25c-8.61,6.46-16.86,12.66-25.26,18.97
	c0.88,1.29,1.81,2.67,2.74,4.04C302.88,369.87,304.02,369.44,305.16,369.01z"/>
<path class="st1" d="M262.22,379c-0.08,0.29-0.3,0.78-0.23,0.83c1.4,0.93,2.84,1.82,4.27,2.71c0.84,2.25,1.68,4.5,2.53,6.78
	c6.68-1.42,23.49-8,28.71-11.29c0-1.14,0-2.35,0-3.81c-1.15,0.34-2.05,0.6-3.57,1.05c1.36-1.1,2.18-1.77,3.22-2.61
	c-1.06-1.37-1.99-2.58-2.97-3.84c-2,1.14-3.63,2.18-5.35,3.04c-3.14,1.57-6.32,3.05-9.46,4.55c4.57-2.75,9.14-5.51,14.14-8.52
	c-2.21-1.58-3.93-2.81-5.51-3.93c-5.49,3.44-10.64,6.71-15.84,9.91c-1.02,0.63-2.23,0.96-3.35,1.42c0.94-0.74,1.84-1.56,2.84-2.22
	c4.82-3.18,9.67-6.31,15.03-9.8c-2.31-1.16-4.05-1.95-5.7-2.88c-1.83-1.03-3.18-0.63-4.85,0.66c-6.2,4.8-12.56,9.39-18.86,14.06
	c-0.59,0.44-1.15,0.9-2.03,1.59C257.79,377.75,259.63,379.43,262.22,379z"/>
<path class="st1" d="M382.93,129.14c0.49,0.84,1.12,1.63,1.46,2.52c0.93,2.43,2.04,4.85,2.52,7.38c0.8,4.14,3.49,6.96,6.1,10.21
	c-1.62-8.24-10.51-28.1-14.23-31.48c0.5,1.43,0.87,2.46,1.23,3.49c-0.71-1.12-1.62-2.17-2.1-3.38c-1.05-2.64-2.72-4.7-5.01-6.3
	c-1.58-1.11-3.13-2.28-4.73-3.35c-0.56-0.38-1.26-0.56-1.85-0.81c2.49,6.82,5.23,13.34,7.19,20.08c1.28,4.41,3.22,7.76,7.36,9.89
	c1.89,0.97,3.48,2.51,5.83,4.25c-0.61-2-0.97-3.19-1.33-4.37C384.55,134.56,383.74,131.85,382.93,129.14z"/>
<path class="st1" d="M111.03,369.85c-0.46,0.98-1.38,2.01-1.29,2.94c0.18,1.93,0.44,4.12,1.49,5.62c1.59,2.26,3.71,4.27,5.94,5.93
	c2.35,1.75,4.98,3.27,7.7,4.35c8.33,3.33,16.77,6.4,25.17,9.56c0.38,0.14,0.84,0.07,1.61,0.11c-2.62-1.43-4.98-2.55-7.16-3.94
	c-2.47-1.59-4.9-3.41-5.56-6.5c-0.31-1.45-0.04-3.02-0.03-4.54c0.96-0.9,1.93-1.8,2.87-2.68c-9.28-5.28-18.3-10.41-27.44-15.61
	C112.85,366.36,111.18,367.55,111.03,369.85z"/>
<path class="st1" d="M248.38,380.02c0,0,0.06,0.07,0.06,0.07c0.2-0.58,0.39-1.17,0.6-1.79c-1.01-0.36-1.89-0.59-2.69-0.97
	c-2.19-1.04-4.02-0.6-5.81,1c-0.86,0.77-2.08,1.12-3.13,1.67c0,0,0.06,0.06,0.06,0.06c1.23-1.25,2.46-2.5,3.94-4.01
	c-1.98-0.49-3.72-0.87-5.43-1.35c-1.74-0.49-2.91,0.13-4.2,1.39c-3.99,3.89-8.16,7.6-12.25,11.38c-0.44,0.41-0.81,0.91-1.48,1.67
	c1.19,0.26,1.94,0.39,2.68,0.58c3.17,0.83,6.35,1.67,8.94,3.83c2.31,1.93,2.33,3.82,0,5.59c-1.07,0.81-2.28,1.51-3.53,2
	c-4.36,1.73-8.96,2.41-13.6,2.76c-2.66,0.2-5.33,0.29-8.04,0.42c0.56,2.08,0.56,2.19,1.92,2.16c2.38-0.05,4.76-0.36,7.14-0.38
	c10.97-0.08,21.82-1.28,32.39-4.2c5.3-1.46,10.69-3.05,14.79-7.26c3.28-3.36,3.56-6.4,0.18-9.5c-1.53-1.4-3.56-2.25-5.14-3.61
	C253.53,379.6,251.22,378.72,248.38,380.02z"/>
<path class="st1" d="M194.82,172.11c10.3,0,20.61,0,31.35,0c0-10.46,0-21.07,0-32.07c-10.32-0.23-20.62-0.46-31.35-0.71
	C194.82,150.38,194.82,160.92,194.82,172.11z"/>
<path class="st1" d="M264.07,143.01c-10.9-1.29-21.26-2.05-31.91-2.5c-0.19,10.95-0.37,21.56-0.55,32.26
	c10.62,0.82,20.91,1.62,31.67,2.46C263.54,164.44,263.8,153.93,264.07,143.01z"/>
<path class="st1" d="M229.99,210.58c10.25,0.8,20.23,1.58,30.44,2.38c1.01-10.91,2.06-21.49,2.39-32.58
	c-10.54-0.82-20.78-1.61-31.35-2.43C230.97,189.06,230.49,199.67,229.99,210.58z"/>
<path class="st1" d="M224.85,210.35c0.38-10.98,0.75-21.61,1.13-32.42c-10.77-0.7-21.05-0.97-31.5-0.74c0,11.02,0,21.66,0,32.49
	C204.56,209.9,214.42,210.12,224.85,210.35z"/>
<path class="st1" d="M299.24,180.17c0.53-10.85,1.25-21.52,0.69-32.27c-10.39-1.81-20.43-3.34-30.7-4.31
	c-0.2,11.02-0.38,21.55-0.57,32.24C278.8,177.27,288.78,178.69,299.24,180.17z"/>
<path class="st0" d="M294.85,216.86c2-11,2.93-21.04,4-32c-10.39-1.81-20.35-3.3-30.62-4.27c-1.38,17.27-1.38,19.27-2.38,32.27
	C276,214.3,284.39,215.37,294.85,216.86z"/>
<path class="st1" d="M188.86,171.91c0.21-10.81,0.42-21.43,0.64-32.37c-10.61-0.03-20.77,0.58-30.84,1.02
	c-0.94,5.89-0.88,29.67,0.03,32.35C168.63,172.58,178.6,172.25,188.86,171.91z"/>
<path class="st1" d="M158.17,178.13c-0.1,11.3,0.47,21.89,1.08,32.63c10.12-0.36,19.75-0.7,29.74-1.06
	c-0.06-10.91,0-21.62-0.09-32.71C178.42,177.38,168.45,177.75,158.17,178.13z"/>
<path class="st0" d="M158.17,216.13c3.68,31.72,2.68,19.72,3.68,31.72c10.12-0.36,17.01-0.64,27-1
	c-0.06-10.91,0.14-20.77,0.05-31.86C178.42,215.38,168.45,215.75,158.17,216.13z"/>
<path class="st1" d="M123.78,176c9.56-0.9,19.14-1.8,29.05-2.73c0-10.86,0-21.49,0-32.44c-9.76,0.93-19.35,1.84-28.82,2.74
	C123.09,147.93,122.97,172.23,123.78,176z"/>
<path class="st1" d="M123.79,181.17c-0.55,6.9,1.5,29.89,2.81,32.52c9.13-0.87,18.24-1.75,27.56-2.64
	c-0.47-10.97-0.93-21.6-1.41-32.61C142.87,179.37,133.41,180.26,123.79,181.17z"/>
<path class="st1" d="M255.88,249.7c1.39-10.67,2.74-20.96,4.11-31.47c-10.31-1.07-20.11-2.05-30.28-2.31
	c-0.68,10.68-1.35,21.06-2.02,31.61C237.19,248.26,246.24,248.95,255.88,249.7z"/>
<path class="st1" d="M224.58,215.46c-10.35-0.25-20.09-0.48-29.98-0.71c0,10.86,0,21.26,0,31.88c9.52,0.22,18.76,0.43,28.23,0.64
	C223.42,236.58,223.99,226.28,224.58,215.46z"/>
<path class="st1" d="M294.46,222.97c-10.17-1.79-19.72-3.28-29.43-4.12c-1.51,10.71-2.96,21-4.42,31.38
	c9.24,1.32,18.08,2.57,27.39,3.9C290.13,243.81,292.25,233.62,294.46,222.97z"/>
<path class="st1" d="M226.25,135.1c0.8-3.74,0.62-26.05-0.18-28.97c-7.86-0.98-27.12-1.17-30.26-0.25
	c-0.23,9.43-0.99,18.9-0.65,28.56C205.67,134.67,215.85,134.88,226.25,135.1z"/>
<path class="st1" d="M190.54,105.38c-10.37-0.1-20.17,0.44-30.07,1.01c-0.73,9.94-1.83,19.38-1.68,29.17
	c10.38-0.38,20.52-0.74,30.77-1.12C189.89,124.64,190.21,115.23,190.54,105.38z"/>
<path class="st1" d="M297.56,113.44c-9.93-1.73-19.68-3.33-29.75-4.12c0.32,5.24,0.65,9.98,0.87,14.73
	c0.22,4.82,0.33,9.65,0.49,14.38c10.4,1.47,20.33,2.88,30.52,4.32C299.77,132.78,298.76,123.23,297.56,113.44z"/>
<path class="st0" d="M262.5,108.51c-9.93-1.73-20.62-1.85-30.69-2.65c0.32,5.24,0.65,9.45,0.87,14.19
	c0.22,4.82,0.01,11.07,0.17,15.81c10,0,20.66,0.56,30.85,2C263.77,127.87,263.7,118.29,262.5,108.51z"/>
<path class="st1" d="M331.3,186.98c0.74-10.95,1.34-21.54,0.81-32.25c-9.01-2.31-17.77-4.39-26.83-5.78
	c-0.3,10.91-0.58,21.44-0.87,32.15C313.25,183.03,321.98,184.94,331.3,186.98z"/>
<path class="st1" d="M300.06,218.6c8.55,1.87,17.05,3.72,25.53,5.58c1.89-5.48,5.01-26.21,4.82-31.73
	c-4.96-2.01-23.29-5.81-26.46-5.47C302.67,197.43,301.38,207.9,300.06,218.6z"/>
<path class="st1" d="M91.41,181.03c9.38-1.52,18.09-2.93,27.02-4.38c0-10.77,0-21.4,0-32.41c-8.92,1.44-17.63,2.85-26.57,4.3
	C90.85,159.47,91.2,170.1,91.41,181.03z"/>
<path class="st1" d="M118.53,181.93c-9.2,1.31-17.93,2.47-26.75,4.46c0.77,10.95,1.66,21.6,3.68,32.11
	c8.84-1.44,17.21-2.81,25.64-4.18C120.24,203.49,119.4,192.9,118.53,181.93z"/>
<path class="st1" d="M157.48,247.96c-1.01-10.72-1.99-21.09-2.98-31.59c-9.44,0.55-18.57,1.33-28.13,2.66
	c1.64,10.62,3.23,20.9,4.85,31.39C140.16,249.59,148.62,248.79,157.48,247.96z"/>
<path class="st1" d="M153.25,135.9c0.7-9.76,1.38-19.32,2.09-29.2c-9.73,0.71-19.07,1.39-28.42,2.77
	c-1.47,9.83-2.48,19.37-2.96,29.19C133.87,137.73,143.34,136.84,153.25,135.9z"/>
<path class="st1" d="M292.43,254.92c7.96,1.74,15.86,3.46,23.89,5.21c3.33-10.27,6.32-20.31,8.38-30.8
	c-8.69-2.12-17-4.16-25.53-5.45C296.91,234.27,294.73,244.34,292.43,254.92z"/>
<path class="st0" d="M281.66,288.46c7.15,2.28,14.25,4.54,21.46,6.84c3.94-9.14,7.54-18.08,10.34-27.53
	c-7.79-2.69-15.23-5.28-22.94-7.2C287.54,269.91,284.67,278.96,281.66,288.46z"/>
<path class="st1" d="M126.85,250.67c-1.68-10.23-3.38-20.59-5.13-31.28c-8.61,1.4-16.97,2.77-25.52,4.16
	c1.81,10.87,4.04,21.13,6.92,31.22c7.85-1.22,15.36-2.39,22.87-3.57C126.19,251.17,126.37,250.97,126.85,250.67z"/>
<path class="st1" d="M194.59,251.56c0.24,10.53,0.47,20.43,0.71,30.62c8.6,0,16.71,0,24.93,0c0.86-10.01,1.66-19.79,2.2-29.9
	C213.02,252.04,204.08,251.81,194.59,251.56z"/>
<path class="st1" d="M255.08,254.62c-9.55-0.74-18.54-1.43-27.8-2.15c-0.93,10.32-1.82,20.19-2.73,30.22
	c8.47,0.66,16.56,1.29,24.98,1.94C251.39,274.61,253.19,264.85,255.08,254.62z"/>
<path class="st1" d="M259.74,255.14c-2.08,10.37-4.04,20.09-6.03,29.99c8.21,1.16,16.04,2.26,24.25,3.42
	c2.93-9.81,5.81-19.43,8.83-29.56C277.52,257.67,268.8,256.43,259.74,255.14z"/>
<path class="st1" d="M191,282c-0.37-10.15-0.74-20.08-1.12-30.28c-9.25,0.3-18.05,0.32-27.27,1.09c1.34,10.27,2.62,20.03,3.93,30.04
	C174.79,282.57,182.69,282.29,191,282z"/>
<path class="st1" d="M305.05,143.72c8.96,1.95,17.7,3.86,26.76,5.83c-0.21-10.09-1.46-19.83-3.21-29.76
	c-8.7-1.89-17.2-3.73-25.94-5.63C303.48,124.27,304.25,133.86,305.05,143.72z"/>
<path class="st0" d="M301.85,108.86c8.96,1.95,15.9,3.72,24.96,5.7c-0.96-9.7-3.96-15.7-6.96-25.7c-8.7-1.89-14.26-3.11-23-5
	C298.85,93.86,301.05,99,301.85,108.86z"/>
<path class="st1" d="M90.87,219.39c-1.24-10.86-2.44-21.32-3.68-32.12c-7.84,1.54-15.59,3.4-23.38,5.86
	c0.9,10.84,2.25,21.33,4.57,31.86C76.1,223.07,83.44,221.24,90.87,219.39z"/>
<path class="st1" d="M96.03,114.05c-1.91,10.04-3.31,19.63-3.87,29.57c9.25-1.5,18.05-2.94,26.72-4.35
	c1.04-9.91,2.04-19.45,3.08-29.43C113.07,111.28,104.69,112.64,96.03,114.05z"/>
<path class="st1" d="M139.06,284.6c2.19,0.54,20.18-0.9,23.35-1.86c-1.44-9.85-2.89-19.74-4.33-29.57
	c-7.33-0.02-22.71,1.66-25.74,2.87C134.58,265.56,136.83,275.14,139.06,284.6z"/>
<path class="st0" d="M148.52,316.22c1.97,0.4,17.97-1.54,20.76-2.52c-1.65-8.73-3.3-17.51-4.94-26.22
	c-6.54,0.25-20.2,2.31-22.86,3.51C143.83,299.39,146.19,307.86,148.52,316.22z"/>
<path class="st1" d="M195.94,101.17c10.5,0,20.42,0,30.7,0c-0.26-8.21-0.52-16.35-0.79-24.91c-9.68,0-19.04,0-28.75,0
	C196.72,84.31,196.34,92.43,195.94,101.17z"/>
<path class="st1" d="M259.26,78.7c-9.67-0.75-18.91-1.47-28.47-2.22c0.37,8.76,0.71,16.97,1.05,25.26
	c10.28,0.79,20.09,1.55,30.3,2.34C261.7,95.41,260.6,87.24,259.26,78.7z"/>
<path class="st1" d="M357.1,200.65c-5.23-2.53-18.69-6.65-21.91-6.76c-1.65,10.49-3.3,20.99-4.96,31.52
	c7.06,2.24,13.96,4.43,21.09,6.69C353.96,221.67,355.87,211.32,357.1,200.65z"/>
<path class="st0" d="M351.08,238.23c-4.7-3.42-19.08-7.7-22.23-8.38c-3.49,10.03-5.49,20.93-9,31c6.55,3.46,13.34,3.8,19.95,7.29
	C344.26,258.36,347.98,248.52,351.08,238.23z"/>
<path class="st1" d="M164.15,76.65c-1.13,8.51-2.21,16.67-3.34,25.25c10.25-0.35,20.04-0.68,29.95-1.01
	c0.5-8.44,0.99-16.55,1.51-25.17C182.84,76.02,173.8,76.33,164.15,76.65z"/>
<path class="st1" d="M357.64,195.1c1.09-10.16,1.46-20.13,1.17-30.14c-0.05-1.68-0.9-2.41-2.34-2.86
	c-5.2-1.64-10.39-3.33-15.59-4.97c-1.35-0.43-2.73-0.76-4.14-1.15c-0.33,11.04-0.64,21.68-0.95,32.22
	C343.13,190.51,350.26,192.76,357.64,195.1z"/>
<path class="st1" d="M98.96,255.65c-2.43-10.51-4.78-20.63-7.23-31.21c-7.54,1.87-14.85,3.69-22.38,5.56
	c2.46,10.73,5.15,20.87,8.82,30.84C85.23,259.07,92.02,257.38,98.96,255.65z"/>
<path class="st1" d="M296.94,108.85c-1.18-8.41-2.7-16.19-4.63-23.9c-0.39-1.58-1.41-1.88-2.69-2.07
	c-6.41-0.93-12.81-1.89-19.22-2.79c-1.98-0.28-3.97-0.39-6.12-0.59c1.11,8.65,2.18,16.94,3.24,25.2
	C277.36,106.09,286.89,107.43,296.94,108.85z"/>
<path class="st1" d="M114.15,289.23c7.37-1.2,14.28-2.32,21.28-3.46c-2.53-10.05-4.98-19.79-7.49-29.75
	c-7.93,1.08-15.63,2.04-23.69,4.01C107.63,270.01,110.87,279.55,114.15,289.23z"/>
<path class="st1" d="M127.65,104.88c9.79-0.92,19.01-1.79,28.16-2.65c1.21-8.43,2.38-16.52,3.6-25.01
	c-8.83,0.24-17.47,1.34-26.36,2.33C130.67,87.77,129.01,96.07,127.65,104.88z"/>
<path class="st1" d="M91.48,114.94c-6.96,1.76-13.52,3.5-20.13,5.03c-2.13,0.49-2.97,1.66-3.31,3.65
	c-0.83,4.92-1.87,9.81-2.64,14.73c-0.61,3.88-0.95,7.81-1.44,12.02c8.19-2.04,15.94-3.97,23.46-5.84
	C88.77,134.68,90.07,125.16,91.48,114.94z"/>
<path class="st0" d="M87.85,149.86c-6.96,1.76-24,6-24,6s-1,26-1,32c8.19-2.04,15.48-4.13,23-6
	C85.85,171.86,86.45,160.07,87.85,149.86z"/>
<path class="st1" d="M45.9,233.16c6.5-2.45,12.52-4.72,18.5-6.98c-1.55-10.65-3.08-21.14-4.65-31.87c-6.63,2.09-13,4.33-19.21,7.3
	C41.6,212.33,43.26,222.69,45.9,233.16z"/>
<path class="st1" d="M241.7,316.87c2.27-9.15,4.5-18.16,6.73-27.17c-5.81-1.41-21.13-2.38-24.44-1.56
	c-1.02,8.93-2.05,17.92-3.11,27.11C227.9,315.79,234.46,316.3,241.7,316.87z"/>
<path class="st0" d="M232.85,344.86c1.76-7.98,6.27-16.15,8-24c-4.51-1.23-18.4-1.75-20.98-1.04c-0.79,7.78-2.21,16.03-3.02,24.04
	C222.3,344.33,227.23,344.37,232.85,344.86z"/>
<path class="st1" d="M217.31,314.68c0.72-9,1.98-18.04,2.42-27.52c-8.29-0.04-16.16-0.69-24.34-0.36
	c0.34,9.43,0.66,18.46,0.99,27.87C203.46,314.68,210.2,314.68,217.31,314.68z"/>
<path class="st1" d="M59.44,188.98c0-10.77,0-21.31,0-31.89c-0.35,0.02-0.71-0.05-1.01,0.06c-5.54,2.04-11.06,4.15-16.62,6.15
	c-1.65,0.59-1.84,1.79-1.83,3.22c0,9.32,0,18.65,0.01,27.97c0,0.5,0.16,1.01,0.28,1.65C46.82,193.7,53.08,191.36,59.44,188.98z"/>
<path class="st1" d="M110.7,289.91c-3.49-9.89-6.9-19.56-10.33-29.28c-6.94,1.53-13.67,2.93-20.45,5.21
	c3.59,10.06,7.71,19.46,12.39,28.67C98.58,292.94,104.6,291.43,110.7,289.91z"/>
<path class="st1" d="M336.45,150.8c7.11,2.25,14.38,4.55,22.27,7.05c-1.04-7.9-1.75-15.26-3.04-22.52c-1.63-9.18,0.48-6.68-8.29-9.8
	c-4.57-1.63-9.27-2.89-14.25-4.42C334.27,131.25,335.34,140.93,336.45,150.8z"/>
<path class="st1" d="M265.28,320.1c3.93-8.93,7.71-17.6,10.75-27.08c-8.1-1.15-15.7-2.22-23.41-3.31
	c-2.52,9.33-4.93,18.27-7.43,27.54C251.88,318.2,258.37,319.12,265.28,320.1z"/>
<path class="st1" d="M97.12,109.46c1.13-0.07,1.9-0.06,2.65-0.18c7.07-1.12,14.12-2.31,21.2-3.36c1.52-0.23,2.05-0.9,2.35-2.34
	c1.5-7.11,3.13-14.19,4.69-21.28c0.14-0.62,0.13-1.26,0.23-2.29c-7.62,1.25-14.87,2.47-22.14,3.63c-1.59,0.25-2.28,1.17-2.69,2.63
	c-1.81,6.45-3.7,12.87-5.52,19.31C97.56,106.74,97.42,107.95,97.12,109.46z"/>
<path class="st1" d="M192.8,314.73c-0.54-9.61-1.05-18.65-1.57-28.02c-8.04,0.42-15.73,0.14-23.74,0.98
	c1.42,9.54,2.96,18.63,5.1,27.61C179.53,315.1,185.99,314.92,192.8,314.73z"/>
<path class="st1" d="M74.49,261.94c-3.03-10.34-5.95-20.34-9.01-30.78c-6.09,2.29-12.09,4.55-18.37,6.92
	c2.8,10.61,6.08,20.57,10.26,30.3C63.23,266.17,68.84,264.06,74.49,261.94z"/>
<path class="st1" d="M318.66,265.95c-4.16,9.93-8.13,19.38-12.12,28.9c5.87,1.86,11.47,3.63,16.98,5.37
	c3.67-5.07,12.59-22.93,14.04-28.23C331.33,270,325.09,268.01,318.66,265.95z"/>
<path class="st1" d="M371.11,241.02c2.89-10.55,5.28-20.87,6.43-31.64c-5.72-2.64-11.16-5.16-16.66-7.69
	c-2.04,10.87-3.99,21.32-5.96,31.81C360.19,235.94,365.42,238.38,371.11,241.02z"/>
<path class="st1" d="M286.33,324.6c5.19-8.56,10.21-16.98,14.38-26.37c-7.21-1.56-13.93-3.01-20.52-4.43
	c-3.91,9.22-7.62,17.96-11.42,26.92C274.66,322.02,280.28,323.26,286.33,324.6z"/>
<path class="st1" d="M361.44,196.59c5.42,2.51,10.95,5.07,16.46,7.62c0.11-0.19,0.2-0.28,0.22-0.38c1.41-9.93,1.5-19.91,1.24-29.9
	c-0.04-1.52-0.91-2.22-2.1-2.77c-4.32-2.01-8.63-4.03-12.97-6.01c-0.57-0.26-1.25-0.28-1.91-0.41
	C362.06,175.45,361.75,185.96,361.44,196.59z"/>
<path class="st1" d="M178.08,391.72c-8.4-3.9-16.74-7.73-25.04-11.66c-1.21-0.57-2.17-0.47-3.15,0.22
	c-1.51,1.07-3.17,2.03-4.38,3.39c-0.96,1.08-1.74,2.64-1.86,4.04c-0.12,1.45,0.37,2.96,1.51,4.32c2.2,2.61,4.99,4.29,7.94,5.66
	c8.42,3.92,17.45,5.73,26.58,6.9c6.63,0.85,13.33,1.21,20,1.76c1.1,0.09,2.22,0.01,3.27,0.01c0.77-2.22-0.57-2.19-1.89-2.32
	c-4.27-0.41-8.57-0.65-12.79-1.39c-3.08-0.55-6.19-1.47-9.02-2.79C174.3,397.53,174.09,395.17,178.08,391.72z"/>
<path class="st1" d="M225.74,72.57c-0.47-7.08-0.91-13.7-1.37-20.78c-8.64-0.19-16.98-0.38-25.63-0.57
	c-0.48,7.1-0.93,13.73-1.4,20.75C206.8,72.17,215.95,72.36,225.74,72.57z"/>
<path class="st1" d="M136.83,290.48c-6.85,0.92-13.65,1.77-20.55,3.46c3.88,9.32,7.86,18.17,12.65,26.72
	c5.98-1,11.7-1.96,17.41-2.92C143.09,308.43,140,299.56,136.83,290.48z"/>
<path class="st0" d="M148.06,321.7c-5.65,1.15-11.26,2.23-16.91,4.03c3.75,7.55,9.23,15.27,13.7,22.13c4.93-1.17,9.3-0.89,14-2
	C155.62,338.28,151.21,329.09,148.06,321.7z"/>
<path class="st1" d="M369.63,245.84c-5.55-2.57-10.77-4.99-16.03-7.42c-3.56,10.32-6.99,20.24-10.47,30.29
	c4.91,2.28,9.81,4.56,14.93,6.93C362.67,266.08,366.4,256.38,369.63,245.84z"/>
<path class="st0" d="M354.85,280.86c-5.18-3.26-10-5-15-8c-4,11-8.28,18.48-13,28c6.09,2.94,7,3,13,6
	C345.63,297.97,350.3,290.91,354.85,280.86z"/>
<path class="st1" d="M258.59,74.99c-1-7.18-2.51-13.97-4.46-21.01c-8.41-0.66-16.73-1.31-25.34-1.99c0.62,7.25,1.19,13.98,1.78,20.8
	C239.99,73.53,249.11,74.25,258.59,74.99z"/>
<path class="st1" d="M76.21,266.7c-5.53,2.08-11.03,4.14-16.85,6.32c4.25,10.03,9.11,19.21,14.57,28.17
	c5.21-1.97,10.15-3.84,15.12-5.72C84.8,285.95,80.64,276.63,76.21,266.7z"/>
<path class="st1" d="M90.97,299.21c-4.25,2.86-9.65,3.64-14.12,6.65c5.4,8.79,11.79,17.42,18,25c4-2.71,6.85-3.45,12-6
	C101.55,316.55,96.5,307.87,90.97,299.21z"/>
<path class="st1" d="M192.52,72.06c0.63-6.97,1.23-13.61,1.86-20.61c-8.49-0.22-16.69,0.42-24.76,0.85
	c-2.44,7.52-4.45,17.63-4.12,20.61C174.33,72.63,183.18,72.36,192.52,72.06z"/>
<path class="st1" d="M64.64,122.34c-0.85,0.17-1.62,0.21-2.32,0.47c-4.59,1.69-9.13,3.48-13.74,5.1c-1.96,0.69-2.84,1.95-3.22,3.93
	c-1.01,5.24-2.26,10.44-3.22,15.69c-0.66,3.64-1,7.34-1.53,11.32c6.8-2.55,13.16-4.94,19.3-7.24
	C61.49,141.81,63.04,132.2,64.64,122.34z"/>
<path class="st1" d="M291.17,79.44c-2.42-6.69-4.67-12.74-6.79-18.83c-0.69-1.99-1.95-2.82-3.97-3.07
	c-4.39-0.56-8.75-1.33-13.14-1.93c-2.78-0.38-5.58-0.62-8.57-0.94c1.69,7.19,3.28,14,4.89,20.87
	C272.56,76.8,281.41,78.05,291.17,79.44z"/>
<path class="st1" d="M69.92,116.16c7.96-1.98,15.39-3.83,22.51-5.6c2.53-8.7,4.94-17.01,7.5-25.83c-6.76,1.72-13.02,3.34-19.29,4.9
	c-1.35,0.34-2.08,1.11-2.61,2.39C74.83,99.7,72.16,107.54,69.92,116.16z"/>
<path class="st1" d="M112.66,294.61c-5.88,1.05-11.85,2.49-18.01,4.51c4.9,9.24,10.04,17.88,15.77,25.99
	c5.36-1.36,10.28-2.61,15.24-3.87C121.3,312.31,117.07,303.63,112.66,294.61z"/>
<path class="st1" d="M164.99,52.91c-0.56-0.1-1-0.28-1.42-0.24c-6.68,0.6-13.36,1.28-20.05,1.83c-1.63,0.14-2.41,0.96-2.91,2.37
	c-1.92,5.47-3.89,10.92-5.81,16.39c-0.24,0.69-0.29,1.45-0.48,2.43c8.84-0.83,17.38-1.63,25.83-2.42
	C161.82,66.26,163.39,59.65,164.99,52.91z"/>
<path class="st1" d="M352.95,123.13c-0.09-0.96-0.03-1.64-0.22-2.24c-2.33-7.23-4.73-14.44-7.02-21.68
	c-0.58-1.85-1.72-2.76-3.48-3.3c-4.99-1.52-9.94-3.16-14.93-4.71c-0.68-0.21-1.45-0.17-2.14-0.23c2.4,8.72,4.75,17.22,7.07,25.64
	C339.09,118.77,345.86,120.9,352.95,123.13z"/>
<path class="st1" d="M42.67,234.67c-1.79-10.45-3.57-20.81-5.38-31.38c-3.8,1.4-7.08,3.84-10.64,5.76
	c-2.92,1.57-3.52,3.69-2.92,6.72c1.19,6.01,2.12,12.08,3.3,18.09c0.57,2.93,1.43,5.8,2.19,8.82
	C33.89,239.89,38.17,237.34,42.67,234.67z"/>
<path class="st1" d="M289.36,325.37c4.86,1.55,9.57,3.06,14.32,4.57c6.38-8.08,12.12-16.31,17.53-25.37
	c-5.96-1.89-11.43-3.63-16.82-5.34C299.32,308.04,294.46,316.49,289.36,325.37z"/>
<path class="st0" d="M268.85,351.86c3.82,1.81,7.27,2.23,11,4c6.13-5.92,15.56-15.17,21-22c-4.68-2.21-10.37-2.97-14.6-4.97
	C281.11,335.55,274.02,345.14,268.85,351.86z"/>
<path class="st1" d="M44.12,240.13c-3.64,1-10.39,5.03-13.32,8.06c2.9,9.9,6.58,19.61,11.15,29.02c4.36-2.61,8.43-5.04,12.44-7.45
	C50.94,259.82,47.54,249.98,44.12,240.13z"/>
<path class="st1" d="M57.46,273.1c-3.46,1.51-9.56,6.47-12.03,9.89c4.29,9.38,9.31,18.47,15.18,27.13c3.94-3.2,7.62-6.2,11.25-9.15
	C67.02,291.61,62.24,282.36,57.46,273.1z"/>
<path class="st1" d="M362.15,159.25c5.37,2.47,10.88,5,16.53,7.6c0-1.36,0.13-2.39-0.02-3.39c-1.02-6.97-1.86-13.98-3.21-20.88
	c-1.32-6.75,0.08-5.01-6.21-8.2c-3.59-1.82-7.32-3.35-11.18-5.09C359.46,139.58,360.8,149.34,362.15,159.25z"/>
<path class="st1" d="M36.83,165.93c-0.5,0.15-1.08,0.22-1.53,0.49c-3.53,2.07-7.02,4.21-10.57,6.26c-1.44,0.83-2.02,1.98-2.03,3.61
	c-0.04,8.76-0.14,17.51-0.17,26.27c0,1.08,0.3,2.17,0.48,3.41c4.78-2.83,9.35-5.53,13.82-8.17
	C36.83,187.19,36.83,176.64,36.83,165.93z"/>
<path class="st1" d="M137.21,55.61c-0.44-0.07-0.79-0.21-1.1-0.16c-6.18,0.97-12.35,1.98-18.53,2.92c-1.59,0.24-2.32,1.31-2.92,2.57
	c-2.7,5.64-5.4,11.28-8.07,16.93c-0.27,0.57-0.36,1.23-0.64,2.2c8.12-1.31,15.92-2.56,23.56-3.79
	C132.13,69.24,134.66,62.46,137.21,55.61z"/>
<path class="st1" d="M287.63,58.72c2.54,7.09,4.92,13.6,7.19,20.14c0.46,1.33,1.31,1.63,2.51,1.87c4.24,0.83,8.47,1.72,12.69,2.63
	c2.96,0.64,5.91,1.35,9.31,2.14c-2.7-7.53-5.93-14.26-9.65-20.75c-0.4-0.7-1.31-1.36-2.09-1.54
	C301.08,61.67,294.55,60.26,287.63,58.72z"/>
<path class="st1" d="M250.69,347.97c4.6-7.8,8.87-15.47,12.6-23.86c-6.81-0.95-13.07-1.82-19.36-2.7
	c-2.91,8.26-5.69,16.17-8.56,24.32C240.48,346.47,245.41,347.19,250.69,347.97z"/>
<path class="st1" d="M196.5,319.24c0.47,8.35,0.91,16.35,1.37,24.54c5.51,0,10.59,0,16.03,0c0.95-8.1,1.9-16.13,2.89-24.54
	C209.86,319.24,203.43,319.24,196.5,319.24z"/>
<path class="st0" d="M197.85,347.51c0.33,5.92,1.26,14.54,1.58,20.35c3.91,0,7.5,0,11.37,0c0.68-5.74,2.35-14.04,3.05-20
	C203.85,347.86,202.76,347.51,197.85,347.51z"/>
<path class="st1" d="M179.38,344.34c5.4-0.24,10.46-0.46,15.69-0.7c-0.68-8.35-1.33-16.35-2.01-24.57
	c-6.68,0.02-12.98,0.08-19.81,0.51C175.38,328.14,177.36,336.15,179.38,344.34z"/>
<path class="st1" d="M201.09,389.78c-4.36,0.52-8.42,0.78-12.37,1.55c-2.28,0.44-4.53,1.47-6.54,2.67c-2.18,1.3-2.17,3.2-0.06,4.58
	c1.68,1.1,3.64,1.79,5.53,2.53c1.04,0.41,2.19,0.55,3.29,0.79c1.11,0.24,2.22,0.46,3.33,0.64c1,0.17,2,0.32,3.01,0.41
	c1.1,0.1,2.21,0.17,3.32,0.19c1.07,0.02,2.31,0.54,3.01-0.83c0.68,1.39,1.93,0.92,2.99,0.83c3.15-0.25,6.33-0.34,9.41-0.94
	c2.76-0.54,5.54-1.38,8.05-2.63c2.69-1.34,2.62-3.61,0.17-5.28c-0.83-0.57-1.77-1.07-2.73-1.34c-3.14-0.88-6.29-1.75-9.49-2.36
	c-0.76-0.15-1.89,0.54-2.56,1.15c-1.99,1.82-3.84,3.8-6.11,6.08C202.54,394.97,201.88,392.6,201.09,389.78z"/>
<path class="st1" d="M162.07,345.87c4.96-0.48,9.68-0.94,14.65-1.43c-2.3-8.36-4.52-16.41-6.8-24.69
	c-6.18,0.59-12.13,1.15-18.55,1.76C154.56,330,158.05,337.85,162.07,345.87z"/>
<path class="st1" d="M384.78,250.69c3.24-9.88,5.33-19.71,6.86-29.67c0.1-0.65-0.24-1.63-0.73-2.07c-3.17-2.88-6.61-5.39-10.45-7.52
	c-2.25,10.56-4.43,20.82-6.66,31.29c1.69,1.16,3.58,2.39,5.41,3.72C381.03,247.76,382.78,249.16,384.78,250.69z"/>
<path class="st1" d="M360.63,277.15c3.36,2.44,6.64,4.82,10.21,7.41c4.9-9.42,9.07-18.93,12.4-29.17
	c-3.67-2.68-7.21-5.27-10.87-7.94C368.38,257.57,364.55,267.26,360.63,277.15z"/>
<path class="st1" d="M74.93,91.18c-5.26,2.02-10.09,3.91-14.94,5.72c-1.6,0.6-2.67,1.55-3.29,3.17c-2.81,7.31-5.7,14.59-8.52,21.9
	c-0.24,0.63-0.22,1.37-0.33,2.12c5.82-2.11,11.36-4.14,16.92-6.12c1.06-0.38,1.59-0.99,1.94-2.09C69.3,107.88,72,99.93,74.93,91.18z
	"/>
<path class="st1" d="M266.77,324.76c-4.58,8.15-8.89,15.83-13.29,23.67c3.79,0.84,7.37,1.47,10.85,2.46
	c1.85,0.52,2.95,0.17,4.05-1.34c4.62-6.33,9.33-12.59,13.98-18.91c0.42-0.58,0.59-1.34,1.01-2.3
	C277.63,327.1,272.22,325.94,266.77,324.76z"/>
<path class="st1" d="M337.03,311.74c-4.54-2.11-8.79-4.09-12.91-6.01c-6.13,8.64-11.99,16.89-17.89,25.2
	c3.74,1.75,7.22,3.38,10.92,5.1C324.24,328.58,330.73,320.61,337.03,311.74z"/>
<path class="st1" d="M382.09,173.98c-0.32,11.14-0.63,21.69-0.93,32.14c3.71,2.68,7.37,5.32,11.29,8.14
	c1.37-10.34,1.64-20.42,1.19-30.52c-0.03-0.72-0.43-1.59-0.95-2.08C389.54,178.72,386.06,176.23,382.09,173.98z"/>
<path class="st1" d="M368.49,288.98c-3.62-2.6-6.89-4.95-10.1-7.26c-5.56,9.33-10.89,18.26-16.22,27.22c3,2.18,5.92,4.3,9,6.54
	C357.6,307.2,363.19,298.54,368.49,288.98z"/>
<path class="st0" d="M80.72,86.09c6.55-1.61,12.46-3.17,18.42-4.45c1.9-0.41,2.85-1.23,3.65-2.97c2.61-5.67,5.47-11.23,8.21-16.85
	c0.31-0.63,0.52-1.31,0.97-2.45c-6.05,1.54-11.55,2.89-17.02,4.38c-0.9,0.25-1.9,0.9-2.43,1.67C88.09,71.76,84.26,78.45,80.72,86.09
	z"/>
<path class="st1" d="M96.85,59.86c5.48-0.45,12-3,19.92-4.52c2.83-4.23,5.84-8.34,8.76-12.5c0.33-0.47,0.59-0.98,1.09-1.85
	c-5.07,0.46-9.19,1.37-13.78,1.86C112.09,42.94,100.67,54.17,96.85,59.86z"/>
<path class="st1" d="M42.69,130.78c-4.59,2.04-8.74,4.54-12.61,7.49c-0.71,0.54-1.1,1.7-1.33,2.64c-1.12,4.51-2.26,9.02-3.16,13.58
	c-0.9,4.53-1.53,9.12-2.38,14.26c5.24-3.09,9.87-5.83,14.09-8.31C39.13,150.36,40.89,140.69,42.69,130.78z"/>
<path class="st1" d="M127.94,325.29c-4.76,1.18-9.55,2.37-14.83,3.68c5.98,8.29,12.03,15.77,18.77,22.8
	c3.9-0.99,7.67-1.94,11.57-2.93C138.24,340.93,133.25,333.35,127.94,325.29z"/>
<path class="st0" d="M92.77,331.75c-6.31-8.42-12.43-16.56-18.81-25.07c-3.45,2.06-7,4.18-10.75,6.42
	c6.44,8.84,13.15,16.74,20.43,24.11C86.88,335.28,89.78,333.54,92.77,331.75z"/>
<path class="st1" d="M198.98,48.49c8.63,0,16.64,0,25.11,0c-0.6-5.18-1.2-10.29-1.81-15.56c-7.48-0.06-14.46-0.5-21.68-0.23
	C200.06,38,199.55,42.94,198.98,48.49z"/>
<path class="st1" d="M253.56,51c-2.08-5.71-3.97-10.89-5.91-16.21c-7.31-0.56-14.29-1.09-21.6-1.64c0.85,5.59,1.62,10.7,2.41,15.88
	C236.68,49.66,244.69,50.3,253.56,51z"/>
<path class="st1" d="M372.51,131.83c0.08-0.5,0.19-0.74,0.14-0.93c-2.25-8.22-5.09-16.23-8.67-23.97c-0.36-0.79-0.89-1.7-1.6-2.1
	c-4.41-2.49-8.97-4.66-13.67-6.33c-0.24,0.31-0.38,0.42-0.37,0.47c2.65,8.19,5.3,16.38,8.02,24.55c0.22,0.65,0.85,1.35,1.46,1.64
	C362.65,127.42,367.51,129.58,372.51,131.83z"/>
<path class="st1" d="M194.72,48.32c0.73-5.26,1.42-10.27,2.11-15.19c-0.47-0.21-0.67-0.38-0.87-0.38
	c-4.21,0.04-8.43-0.03-12.63,0.19c-8.98,0.46-6.84-1.18-10.14,7.37c-1.08,2.8-1.89,5.71-2.93,8.9
	C178.67,48.89,186.5,48.61,194.72,48.32z"/>
<path class="st1" d="M342.83,92.61c-3.45-7.84-7.35-14.76-11.8-21.37c-0.41-0.62-1.11-1.22-1.81-1.44
	c-5.19-1.68-10.4-3.27-15.61-4.87c-0.11-0.03-0.31,0.23-0.29,0.22c3.14,6.74,6.23,13.44,9.4,20.11c0.3,0.64,0.92,1.38,1.56,1.58
	C330.21,88.75,336.18,90.56,342.83,92.61z"/>
<path class="st1" d="M281.65,54.82c-2.41-5.45-5.27-10.06-8.23-14.63c-0.96-1.48-2.18-2.2-3.85-2.43c-3.15-0.44-6.29-0.98-9.44-1.4
	c-2.78-0.37-5.57-0.63-8.69-0.98c2.19,5.61,4.21,10.77,6.29,16.08C265.52,52.56,273.35,53.66,281.65,54.82z"/>
<path class="st1" d="M143.04,50.85c0.21,0.22,0.42,0.45,0.62,0.67c7.45-0.68,14.89-1.36,22.38-2.05c2.01-5.28,3.97-10.43,6.1-16.02
	c-6.38,0.62-12.37,1.15-18.33,1.85c-0.87,0.1-1.94,0.83-2.41,1.59C148.53,41.49,145.81,46.18,143.04,50.85z"/>
<path class="st0" d="M98.21,334.36c7.1,8.09,14.23,15.21,21.92,21.71c3.25-1.26,6.29-2.43,9.42-3.65
	c-6.38-7.54-12.61-14.89-19.13-22.59C106.68,331.23,102.77,332.67,98.21,334.36z"/>
<path class="st1" d="M347.96,319.62c-3-2.66-5.81-4.83-8.83-6.41c-6.82,8.17-13.41,16.07-20.01,23.98c2.5,1.82,4.88,3.55,7.47,5.43
	C334.21,335.57,341.22,328.04,347.96,319.62z"/>
<path class="st1" d="M377.37,138.82c1.34,9.65,2.61,19.07,4,28.48c0.13,0.85,0.92,1.77,1.65,2.33c2.06,1.6,4.27,3,6.39,4.53
	c1.13,0.82,2.21,1.72,3.76,2.95c-0.85-10.27-2.38-19.66-4.73-28.91c-0.16-0.64-0.4-1.37-0.85-1.81
	C384.52,143.41,381.01,141,377.37,138.82z"/>
<path class="st1" d="M28.42,249.4c-1.88,2.08-3.69,4.08-5.51,6.07c-1.37,1.49-1.62,3.06-0.8,4.99c3.36,7.95,6.61,15.94,9.92,23.91
	c0.29,0.71,0.8,1.32,1.23,2.02c2.34-2.65,4.58-5.18,6.63-7.51C36.07,269.03,32.33,259.43,28.42,249.4z"/>
<path class="st1" d="M21.32,214.26c-2.18,1.76-4.27,3.46-6.38,5.14c-1.59,1.26-2.07,2.77-1.56,4.8c2.09,8.37,4.05,16.78,6.1,25.16
	c0.18,0.74,0.59,1.43,0.9,2.19c2.73-2.26,5.32-4.41,7.72-6.4C25.83,234.84,23.62,224.78,21.32,214.26z"/>
<path class="st1" d="M303.12,334.68c-7.12,7.38-13.93,14.44-20.87,21.64c2.97,1.38,5.63,2.62,8.15,3.8
	c7.12-4.95,19.91-16.45,22.96-20.7C309.84,337.79,306.39,336.19,303.12,334.68z"/>
<path class="st1" d="M58.49,310.47c-5.5-9.09-10.82-17.9-16.34-27.01c-1.7,1.86-3.3,3.62-4.9,5.36c-1.4,1.52-1.6,2.98-0.36,4.83
	c4.85,7.28,9.57,14.65,14.35,21.97c0.36,0.55,0.87,0.99,1.35,1.54C54.62,314.85,56.56,312.65,58.49,310.47z"/>
<path class="st1" d="M148.23,36.35c-0.15-0.07-0.35-0.27-0.52-0.24c-5.29,0.8-10.58,1.54-15.84,2.49c-0.99,0.18-2.03,1.07-2.7,1.9
	c-3.34,4.18-6.57,8.43-9.81,12.69c-0.42,0.55-0.61,1.28-1.03,2.17c6.77-1.03,13.17-1.97,19.55-3.01c0.66-0.11,1.42-0.75,1.78-1.36
	C142.58,46.15,145.39,41.24,148.23,36.35z"/>
<path class="st1" d="M275.9,38.81c3.32,5.63,6.29,10.73,9.34,15.78c0.36,0.6,1.12,1.18,1.8,1.33c6.41,1.41,12.85,2.73,19.29,4.08
	c0.02-0.31,0.14-0.58,0.04-0.7c-3.9-5.17-7.8-10.34-11.77-15.47c-0.45-0.58-1.25-1.08-1.97-1.25
	C287.22,41.31,281.79,40.13,275.9,38.81z"/>
<path class="st1" d="M111.35,361.07c2.36-1.44,4.62-2.82,6.83-4.16c-7.48-7.23-14.71-14.23-22.2-21.47c-2.76,1.68-5.6,3.4-8.77,5.33
	C95.01,348.39,102.87,355.01,111.35,361.07z"/>
<path class="st1" d="M60.02,93.55c5.71-2.08,10.78-3.98,15.89-5.75c1.39-0.48,1.8-1.56,2.42-2.63c3.34-5.8,6.73-11.57,10.11-17.35
	c0.36-0.62,0.7-1.25,1.42-2.53c-5.51,1.78-10.29,3.45-14.88,5.66c-0.48,0.23-0.89,0.7-1.23,1.15C68.7,78.67,64.18,85.59,60.02,93.55
	z"/>
<path class="st1" d="M222.36,369.52c3.32-6.58,6.15-13.21,8.75-20.49c-5.28-0.41-10.09-0.78-15.07-1.17
	c-1.36,7.14-2.64,13.88-3.96,20.86C215.62,368.99,218.78,369.24,222.36,369.52z"/>
<path class="st1" d="M224.47,369.67c2.95,0.47,5.74,0.87,8.51,1.37c1.4,0.25,2.08-0.6,2.76-1.53c3.03-4.11,6.08-8.19,9.05-12.34
	c1.24-1.73,2.29-3.58,3.69-5.78c-5.22-0.73-9.97-1.4-14.56-2.04C230.67,356.34,227.62,362.9,224.47,369.67z"/>
<path class="st1" d="M54.35,100.04c-0.14-0.17-0.28-0.35-0.42-0.52c-3.19,1.93-6.36,3.89-9.57,5.78c-1.64,0.97-2.76,2.33-3.51,4.03
	c-2.41,5.51-4.86,11-7.2,16.54c-1,2.37-1.76,4.83-2.91,8.04c2.6-1.64,4.45-2.85,6.35-3.98c2.43-1.45,5.54-2.31,7.19-4.37
	c1.74-2.16,2.03-5.47,3.1-8.21C49.66,111.56,52.03,105.81,54.35,100.04z"/>
<path class="st1" d="M82.13,338.52c-6.89-7.97-13.63-15.77-20.7-23.94c-1.92,2.2-3.82,4.37-5.82,6.66
	c6.77,8.34,13.76,15.89,21.52,22.84C78.9,342.11,80.48,340.35,82.13,338.52z"/>
<path class="st1" d="M377.82,293.78c4.94-8.75,8.97-17.63,12.31-26.82c0.21-0.59,0.3-1.41,0.06-1.94c-1.25-2.8-2.86-5.36-5.25-7.3
	c-4.18,9.61-8.29,19.05-12.44,28.59C374.15,288.63,375.9,291.1,377.82,293.78z"/>
<path class="st1" d="M369.94,291c-5.86,8.82-11.55,17.4-17.29,26.04c1.44,2.06,2.99,4.26,4.66,6.64c0.82-0.95,1.6-1.74,2.25-2.63
	c4.11-5.7,8.31-11.34,12.25-17.16c4.03-5.97,3.88-6.5-0.83-11.93C370.69,291.62,370.33,291.35,369.94,291z"/>
<path class="st1" d="M180.6,348c2.08,7.23,4.22,14.09,7.08,20.8c3.47-0.19,6.7-0.36,10.05-0.54c-0.8-7.07-1.56-13.78-2.35-20.86
	C190.4,347.6,185.69,347.79,180.6,348z"/>
<path class="st1" d="M185.59,368.9c-2.67-7.16-5.19-13.92-7.75-20.8c-4.59,0.45-8.96,0.87-13.72,1.33c0.56,1.24,0.89,2.17,1.38,3.02
	c2.45,4.23,4.79,8.52,7.44,12.62c3.72,5.76,2.09,4.89,8.51,4.16C182.69,369.09,183.93,369.03,185.59,368.9z"/>
<path class="st1" d="M297.76,365.24c8.79-5.74,17.03-12.01,25.12-19.24c-2.69-1.95-5.03-3.64-7.24-5.24
	c-8.01,6.94-15.69,13.6-23.51,20.36C294,362.49,295.8,363.8,297.76,365.24z"/>
<path class="st1" d="M236.41,371.52c2.42,0.55,4.43,0.93,6.39,1.48c1.6,0.45,2.83,0.09,3.99-1.07c5.21-5.21,10.47-10.38,15.69-15.58
	c0.37-0.37,0.61-0.88,1.19-1.73c-4.48-0.97-8.62-1.87-12.46-2.7C246.13,358.65,241.37,364.95,236.41,371.52z"/>
<path class="st1" d="M20.79,176.59c-0.26-0.12-0.52-0.24-0.78-0.37c-1.66,1.82-3.35,3.63-4.99,5.47c-1.66,1.87-2.42,4.07-2.4,6.57
	c0.03,8.3,0.04,16.61,0.08,24.91c0,0.86,0.24,1.72,0.42,2.93c2.26-2.43,4.15-4.66,6.25-6.66c1.11-1.05,1.48-2.09,1.42-3.57
	c-0.25-5.79-0.52-11.59-0.55-17.39C20.21,184.53,20.59,180.56,20.79,176.59z"/>
<path class="st1" d="M392.32,260.33c0.36-0.97,0.75-1.78,0.95-2.64c1.87-7.72,3.5-15.5,5.62-23.15c1.61-5.81-1.99-8.98-4.96-12.64
	c-2.49,9.97-4.93,19.64-7.3,29.33c-0.14,0.57,0.02,1.39,0.36,1.88C388.67,255.51,390.46,257.83,392.32,260.33z"/>
<path class="st1" d="M149.08,351.72c0.19,0.69,0.19,1.07,0.37,1.29c4.94,5.76,9.88,11.52,14.89,17.23c0.46,0.52,1.36,1.03,2,0.96
	c2.52-0.26,5.02-0.74,7.74-1.18c-4.38-6.92-8.49-13.4-12.81-20.23C157.35,350.41,153.27,351.05,149.08,351.72z"/>
<path class="st1" d="M334.44,71.59c-0.18,0.22-0.36,0.44-0.54,0.66c1.43,2.31,2.91,4.6,4.29,6.94c1.44,2.45,3.13,4.82,4.11,7.44
	c2.04,5.45,5.43,9.12,11.18,10.71c2.43,0.67,4.63,2.14,7.23,3.39c-0.17-0.75-0.16-1.1-0.32-1.36c-4.15-6.77-8.3-13.55-12.49-20.29
	c-0.41-0.66-0.96-1.37-1.62-1.7C342.36,75.39,338.39,73.5,334.44,71.59z"/>
<path class="st1" d="M349.57,320.98c-7.46,7.89-14.54,15.4-21.72,23c1.21,1.72,2.49,3.52,3.93,5.55
	c8.06-6.81,15.45-13.94,22.29-21.99C352.49,325.24,351.1,323.21,349.57,320.98z"/>
<path class="st1" d="M401.99,213.98c-0.15,0-0.3-0.01-0.46-0.01c0-1.12,0-2.25,0-3.37c-0.01-5.11,0.07-10.23-0.06-15.33
	c-0.11-4.37-2.91-7.33-5.77-10.71c-0.24,0.82-0.41,1.11-0.4,1.41c0.19,9.66,0.13,19.31-1.11,28.92c-0.08,0.61,0.07,1.41,0.43,1.9
	c1.71,2.38,3.52,4.68,5.68,7.5c0.3-2.41,0.54-4.38,0.83-6.72c1.21,3.99-1.31,7.77,0.61,11.3c0.53-5,0.97-9.98,1.08-14.98
	c0.11-5-0.1-10.01-0.18-15.02c-0.22,0-0.43,0-0.65,0C401.99,203.91,401.99,208.95,401.99,213.98z"/>
<path class="st1" d="M135.2,355.27c6.53,6.62,13.06,12.41,20.02,17.69c0.42,0.32,1.07,0.67,1.51,0.57c2.25-0.51,4.46-1.16,6.89-1.82
	c-4.11-4.49-7.93-8.68-11.77-12.84c-1.97-2.13-3.98-4.23-5.97-6.34c-2.98,0.69-5.96,1.37-8.94,2.07
	C136.55,354.71,136.16,354.91,135.2,355.27z"/>
<path class="st1" d="M246.9,373.87c1.5,0.51,2.73,0.78,3.82,1.33c2.23,1.11,4.05,0.57,5.93-0.89c5.64-4.4,11.37-8.69,17.05-13.05
	c0.87-0.67,1.61-1.49,2.86-2.68c-3.88-1.22-7.26-2.28-10.23-3.21C259.67,361.71,253.44,367.65,246.9,373.87z"/>
<path class="st1" d="M34.84,293.03c-0.45,1.24-0.81,2.03-1.02,2.86c-1.16,4.6,0.57,8.87,2.66,12.56c3.8,6.71,8.39,12.98,12.68,19.41
	c0.71,1.06,1.56,2.02,2.35,3.03c0.18-0.12,0.36-0.25,0.54-0.37c-0.86-1.9-1.73-3.8-2.56-5.63c0.26,0.02,0.65,0.04,1.06,0.07
	c0.21-1.27,0.19-2.59,0.66-3.7c0.84-1.96,0.16-3.29-0.95-4.92c-4.63-6.75-9.07-13.63-13.57-20.46
	C36.15,295.06,35.62,294.23,34.84,293.03z"/>
<path class="st1" d="M326.8,66.24c-4-6.46-8.95-12.06-14.44-17.18c-0.41-0.38-0.9-0.74-1.42-0.91c-4.37-1.46-8.76-2.88-13.37-4.38
	c0.16,0.65,0.15,0.9,0.27,1.06c3.96,5.11,7.92,10.23,11.93,15.31c0.46,0.58,1.12,1.17,1.81,1.39
	C316.63,63.14,321.72,64.67,326.8,66.24z"/>
<path class="st1" d="M110.04,362.12c-8.09-6.67-16.1-13.28-24.19-19.96c-1.87,1.48-3.59,3.17-4.69,5.55
	c8.08,6.97,16.37,13.19,25.2,18.69C107.77,364.77,108.94,363.4,110.04,362.12z"/>
<path class="st1" d="M123.76,359.14c7.83,6.47,15.51,11.88,23.59,16.71c0.52,0.31,1.33,0.51,1.87,0.33
	c1.74-0.56,3.42-1.32,5.06-1.97c-6.79-5.96-13.36-11.68-19.88-17.47c-0.91-0.81-1.76-0.92-2.78-0.54
	C129.17,357.1,126.74,358.02,123.76,359.14z"/>
<path class="st1" d="M219.72,20.12c-5.92,0-11.34,0-16.9,0c-0.81,3.3-1.68,6.54-1.58,10.31c6.93,0,13.59,0,20.67,0
	C221.19,27.09,220.5,23.81,219.72,20.12z"/>
<path class="st1" d="M245.7,32.51c0.18-0.22,0.36-0.44,0.55-0.66c-1.99-3-3.93-6.04-6.02-8.97c-0.47-0.66-1.44-1.25-2.24-1.33
	c-4.95-0.49-9.91-0.82-15.27-1.24c1.04,3.83,1.94,7.16,2.89,10.65C232.41,31.49,239.06,32,245.7,32.51z"/>
<path class="st1" d="M177.18,31c6.95-0.2,13.55-0.39,20.12-0.58c0.85-3.74,1.6-7,2.44-10.69c-5.36,0.26-10.33,0.47-15.29,0.78
	c-0.59,0.04-1.34,0.42-1.71,0.88C180.54,24.24,178.57,27.23,177.18,31z"/>
<path class="st1" d="M269.95,35.75c-3.48-4.57-6.89-7.86-10.67-10.77c-0.52-0.4-1.18-0.75-1.82-0.85c-4.8-0.75-9.61-1.43-15.03-2.22
	c1.59,2.18,3.18,3.74,4.02,5.62c2.05,4.59,5.5,6.28,10.35,6.49C260.94,34.21,265.05,35.08,269.95,35.75z"/>
<path class="st1" d="M154.84,32.2c0.09,0.26,0.18,0.52,0.27,0.77c6.15-0.57,12.31-1.14,18.16-1.69c2.34-3.61,4.47-6.91,6.94-10.73
	c-5.22,0.52-9.91,0.98-14.6,1.5c-0.52,0.06-1.05,0.42-1.49,0.76C160.64,25.56,157.56,28.7,154.84,32.2z"/>
<path class="st1" d="M29.95,295.89c0.24-0.04,0.48-0.08,0.71-0.12c0.36-1.74,0.53-3.55,1.13-5.21c0.58-1.63,0.39-2.93-0.29-4.5
	c-3.44-7.89-6.71-15.86-10.05-23.8c-0.27-0.65-0.62-1.27-1.09-2.23c-1.39,3.39-2.02,6.42-0.94,9.63c0.98,2.9,1.76,5.88,2.92,8.71
	C24.77,284.25,27.4,290.05,29.95,295.89z"/>
<path class="st1" d="M390.39,149.41c1.36,8.49,2.74,16.99,4.05,25.51c0.32,2.11,0.18,4.21,1.99,5.94c1.55,1.49,2.67,3.43,3.97,5.18
	c-0.73-10.17-1.88-20.1-5.15-29.61C394.31,153.67,392.64,151.2,390.39,149.41z"/>
<path class="st1" d="M207.24,387.57c4.19,0.9,4.2,0.91,6.2-2.12c0.94-1.42,1.88-2.85,2.73-4.33c1.56-2.71,3.04-5.46,4.83-8.69
	c-3.63-0.24-6.62-0.44-9.63-0.65C209.94,377.26,208.62,382.28,207.24,387.57z"/>
<path class="st1" d="M199.87,371.7c0.58,5.32,1.15,10.48,1.73,15.77c1.72,0,3.13,0,4.78,0c1.07-5.23,2.11-10.3,3.23-15.77
	C206.23,371.7,203.33,371.7,199.87,371.7z"/>
<path class="st1" d="M16.67,261.58c0.18-0.06,0.37-0.13,0.55-0.19c0.25-1.22,0.34-2.51,0.8-3.64c0.91-2.24,0.59-4.32,0.08-6.62
	c-1.79-7.98-3.31-16.03-4.94-24.05c-0.12-0.61-0.36-1.2-0.7-2.31c-1.89,3.98-1.48,7.6-0.97,11.15c0.71,4.95,1.59,9.89,2.57,14.79
	C14.79,254.36,15.79,257.96,16.67,261.58z"/>
<path class="st1" d="M22.15,141.72c0.18,0.07,0.36,0.13,0.54,0.2c1.31-1.4,2.52-2.93,3.96-4.18c1.6-1.4,2.47-3.08,3.25-5.04
	c2.71-6.86,5.65-13.62,8.5-20.42c0.35-0.84,0.69-1.69,1.04-2.54c-1.51,0.9-2.67,1.98-3.64,3.22c-1.05,1.33-2.09,2.72-2.82,4.24
	c-3,6.24-5.92,12.52-8.78,18.83C23.37,137.85,22.83,139.82,22.15,141.72z"/>
<path class="st1" d="M256.28,399.68c12.41-3.55,24.97-6.61,35.74-14.13c-0.39-0.2-0.7-0.17-0.99-0.07c-7.98,2.66-15.95,5.32-23.92,8
	c-0.85,0.28-1.69,0.64-2.45,1.1C261.85,396.24,259.07,397.97,256.28,399.68z"/>
<path class="st1" d="M400.93,234.11c-0.32-0.03-0.64-0.06-0.96-0.1c-0.16,0.52-0.35,1.03-0.48,1.55c-1.78,7.5-3.31,15.06-5.41,22.47
	c-0.98,3.44-1.01,6.65-0.19,10.04C397.41,256.97,400.3,245.76,400.93,234.11z"/>
<path class="st1" d="M218.67,18.56c-0.88-4.1-1.61-4.79-5.44-4.94c-1.59-0.07-3.19-0.07-4.78-0.07c-4.06,0-4.33,0.26-5,5.01
	C208.55,18.56,213.61,18.56,218.67,18.56z"/>
<path class="st1" d="M202.56,13.6c-4.19,0.04-8.01-0.2-11.66,0.91c-2.21,0.67-4.08,2.17-6.06,4.62c5.61-0.25,10.5-0.46,15.41-0.68
	C200.98,16.92,201.65,15.52,202.56,13.6z"/>
<path class="st1" d="M11.86,189.02c-0.26-0.03-0.51-0.06-0.77-0.09c-1.36,11.06-1.68,22.15-0.23,33.3c0.67-1.84,1.08-3.71,1.08-5.59
	c0.04-8.08-0.05-16.15-0.08-24.23C11.85,191.28,11.86,190.15,11.86,189.02z"/>
<path class="st1" d="M308.28,377.97c-0.18-0.22-0.37-0.43-0.55-0.65c-3.79,2.5-8.39,3.62-11.78,6.81c0.11,0.2,0.23,0.4,0.34,0.6
	C300.29,382.47,304.29,380.22,308.28,377.97z"/>
<path class="st1" d="M373.4,106.09c-0.23,0.13-0.45,0.25-0.68,0.38c1.13,2.06,2.27,4.11,3.4,6.17c0.27-0.15,0.54-0.3,0.81-0.45
	C375.75,110.15,374.57,108.12,373.4,106.09z"/>
</svg>
